{
	"image": "cr.grahsl.net/rust-aarch64-dev:0.2.0",
	"runArgs": ["--privileged"],
	"extensions": [
		"vadimcn.vscode-lldb",
		"rust-lang.rust"
	],
	"workspaceFolder": "/workspace",
	"workspaceMount": "source=remote-workspace,target=/workspace,type=volume"
}
